…
I import the data from Yahoo Finance with the package **tidyquant**.

``` r
library(tidyquant)

# import data
(cac <- tq_get(
  "^FCHI",
  from = '1990-03-01',
  to = "2024-11-30",
  get = "stock.prices"
))
```

    ## # A tibble: 8,957 × 8
    ##    symbol date        open  high   low close volume adjusted
    ##    <chr>  <date>     <dbl> <dbl> <dbl> <dbl>  <dbl>    <dbl>
    ##  1 ^FCHI  1990-03-01  1836  1838  1827  1832      0     1832
    ##  2 ^FCHI  1990-03-02  1831  1860  1831  1860      0     1860
    ##  3 ^FCHI  1990-03-05  1866  1874  1862  1874      0     1874
    ##  4 ^FCHI  1990-03-06  1869  1875  1866  1872      0     1872
    ##  5 ^FCHI  1990-03-07  1874  1881  1874  1880      0     1880
    ##  6 ^FCHI  1990-03-08  1891  1923  1891  1917      0     1917
    ##  7 ^FCHI  1990-03-09  1936  1941  1921  1921      0     1921
    ##  8 ^FCHI  1990-03-12  1917  1918  1912  1912      0     1912
    ##  9 ^FCHI  1990-03-13  1924  1924  1924  1924      0     1924
    ## 10 ^FCHI  1990-03-14  1919  1946  1919  1946      0     1946
    ## # ℹ 8,947 more rows
…
